{
    "KPlugin": {
        "Description": "Autostarts Welcome Center after new system installation or update",
        "Description[ar]": "تشغل تطبيق مركز الترحيب آليا بعد تثبيت النظام أو بعد التحديث",
        "Description[bg]": "Автоматично стартиране на Центъра за приветствие след нова инсталация или актуализация на системата",
        "Description[ca@valencia]": "Inicia automàticament el centre de benvinguda després d'una instal·lació nova del sistema o d'una actualització",
        "Description[ca]": "Inicia automàticament el centre de benvinguda després d'una instal·lació nova del sistema o d'una actualització",
        "Description[cs]": "Automaticky spustí uvítací centrum při instalaci nového systému nebo při aktualizaci",
        "Description[de]": "Startet den Begrüßungsassistenten automatisch nach der Neuinstallation oder Aktualisierung des Systems",
        "Description[en_GB]": "Autostarts Welcome Center after new system installation or update",
        "Description[eo]": "Aŭtomate startigas Bonvencentron post nova sisteminstalo aŭ ĝisdatigo",
        "Description[es]": "Inicia automáticamente el centro de bienvenida tras una nueva instalación o actualización del sistema",
        "Description[eu]": "Ongietorri Gunea automatikoki abiatzen du sistema berria instalatu edo eguneratu ondoren",
        "Description[fi]": "Käynnistää tervetulokeskuksen automaattisesti järjestelmän asennuksen tai päivityksen jälkeen",
        "Description[fr]": "Démarre automatiquement le centre d'accueil après l'installation ou la mise à jour du nouveau système",
        "Description[gl]": "Inicia automaticamente o centro de benvida despois dunha nova instalación ou actualización do sistema.",
        "Description[he]": "מפעיל את מרכז קבלת הפנים לאחר התקנה של מערכת חדשה או שדרוגה",
        "Description[ia]": "Autoinitia Centro de Benvenite post nove installation de systema o actualisation.",
        "Description[id]": "Memulai Welcome Center secara otomatis setelah pemasangan sistem atau pembaruan baru",
        "Description[it]": "Avvia automaticamente il Centro di benvenuto dopo l'installazione o l'aggiornamento di un nuovo sistema",
        "Description[ka]": "განახლების ან ახალი სისტემის დაყენების შემდეგ მისალმების ცენტრი ავტომატურად ეშვება",
        "Description[ko]": "새 시스템 설치 또는 업데이트 후 자동으로 환영 센터 실행",
        "Description[nl]": "Start het welkomstcentrum automatisch na een installatie van een nieuw systeem of na bijwerken",
        "Description[nn]": "Startar automatisk velkomst­senteret etter installering eller oppdatering av systemet",
        "Description[pl]": "Sam uruchamia Powitanie po wgraniu nowego systemu lub jego uaktualnieniu",
        "Description[pt]": "Inicia automaticamente o Centro de Boas-Vindas após uma nova instalação ou actualização do sistema",
        "Description[pt_BR]": "Inicia automaticamente o centro de boas vindas após uma instalação ou atualização do sistema novo",
        "Description[ru]": "Автоматический запуск помощника первого запуска после установки системы или обновления",
        "Description[sa]": "नूतनसङ्गणकप्रणालीस्थापनस्य अथवा अद्यतनीकरणस्य अनन्तरं स्वागतकेन्द्रं स्वयमेव आरभते",
        "Description[sk]": "Automaticky spustí uvítacie centrum po inštalácii nového systému alebo aktualizácii",
        "Description[sl]": "Samodejno zažene center dobrodošlice po namestitvi novega sistema ali posodobitvi",
        "Description[ta]": "புதிய நிறுவலிலோ புதுப்பிப்புக்கு பின்னோ வரவேற்பு மையத்தை திறக்கும்",
        "Description[tr]": "Yeni sistem kurulumu veya güncellemesi sonrası Karşılama Merkezi'ni otomatik olarak başlatır",
        "Description[uk]": "Автоматично запускає «Вітальний центр» після встановлення або оновлення системи",
        "Description[x-test]": "xxAutostarts Welcome Center after new system installation or updatexx",
        "Description[zh_CN]": "新版系统安装或者更新完成后自动启动安全中心",
        "Description[zh_TW]": "更新後或新系統第一次啟動時自動啟動歡迎中心",
        "Name": "Welcome Center Launcher",
        "Name[ar]": "مطلق تطبيق مركز الترحيب",
        "Name[bg]": "Стартиране на Центъра за приветствие",
        "Name[ca@valencia]": "Iniciador del centre de benvinguda",
        "Name[ca]": "Llançador del centre de benvinguda",
        "Name[cs]": "Spouštěč uvítacího centra",
        "Name[de]": "Begrüßungsassistent-Starter",
        "Name[en_GB]": "Welcome Center Launcher",
        "Name[eo]": "Lanĉilo por Welcome Center",
        "Name[es]": "Lanzador del centro de bienvenida",
        "Name[eu]": "Ongietorri Gune abiarazlea",
        "Name[fi]": "Tervetulokeskuksen käynnistin",
        "Name[fr]": "Lanceur pour le centre de bienvenue",
        "Name[gl]": "Iniciador do centro de benvida",
        "Name[he]": "משגר מרכז קבלת הפנים",
        "Name[ia]": "Lanceator de Centro de Benvenite",
        "Name[id]": "Peluncur Welcome Center",
        "Name[it]": "Avvio del Centro di benvenuto",
        "Name[ka]": "მოგესალმებით გაშვების ცენტრში",
        "Name[ko]": "환영 센터 실행기",
        "Name[nl]": "Starter van welkomstcentrum",
        "Name[nn]": "Velkomst­senter-startar",
        "Name[pl]": "Uruchamiacz Powitania",
        "Name[pt]": "Lançamento do Centro de Boas-Vindas",
        "Name[pt_BR]": "Lançador do centro de boas vindas",
        "Name[ru]": "Приложение запуска помощника первого запуска",
        "Name[sa]": "स्वागतं केन्द्रस्य आरम्भकः",
        "Name[sk]": "Spúšťač privítacieho centra",
        "Name[sl]": "Zaganjalnik centra dobrodošlice",
        "Name[ta]": "வரவேற்பு மைய ஏவி",
        "Name[tr]": "Karşılama Merkezi Başlatıcısı",
        "Name[uk]": "Засіб запуску «Вітального центру»",
        "Name[x-test]": "xxWelcome Center Launcherxx",
        "Name[zh_CN]": "欢迎中心启动程序",
        "Name[zh_TW]": "歡迎中心啟動器"
    },
    "X-KDE-Kded-autoload": true,
    "X-KDE-Kded-phase": 1,
    "X-KDE-Library": "plasma-welcome"
}
